==============================================================================
Suites                                                                        
==============================================================================
Suites.AngloProjectSiteLogin                                                  
==============================================================================
LoginTest                                                             | PASS |
------------------------------------------------------------------------------
Suites.AngloProjectSiteLogin                                          | PASS |
1 critical test, 1 passed, 0 failed
1 test total, 1 passed, 0 failed
==============================================================================
Suites                                                                | PASS |
1 critical test, 1 passed, 0 failed
1 test total, 1 passed, 0 failed
==============================================================================
Output:  C:\Users\Punith.Keshav\PycharmProjects\pythonProject\pabot_results\0\output.xml
